2020-03-09T21:47:22.6600363-04:00  [INF] Now listening on: "http://localhost:5000" (d826f4b8)
2020-03-09T21:47:22.6876332-04:00  [INF] Now listening on: "http://10.10.0.121:5000" (d826f4b8)
2020-03-09T21:47:22.6881796-04:00  [INF] Application started. Press Ctrl+C to shut down. (dcaefe54)
2020-03-09T21:47:22.6882792-04:00  [INF] Hosting environment: "Development" (c3307c92)
2020-03-09T21:47:22.6884515-04:00  [INF] Content root path: "/media/support/ExternalDiskTour/Templates/dotnet/webapiMongoDb" (b5d60022)
2020-03-09T21:47:58.1275357-04:00 0HLU4IK5AMS0F:00000001 [ERR] An unhandled exception has occurred while executing the request. (48a46595)
System.NotSupportedException: The collection type 'Newtonsoft.Json.Linq.JObject' is not supported.
   at System.Text.Json.JsonPropertyInfoNotNullable`4.GetDictionaryKeyAndValueFromGenericDictionary(WriteStackFrame& writeStackFrame, String& key, Object& value)
   at System.Text.Json.JsonPropertyInfo.GetDictionaryKeyAndValue(WriteStackFrame& writeStackFrame, String& key, Object& value)
   at System.Text.Json.JsonSerializer.HandleDictionary(JsonClassInfo elementClassInfo, JsonSerializerOptions options, Utf8JsonWriter writer, WriteStack& state)
   at System.Text.Json.JsonSerializer.Write(Utf8JsonWriter writer, Int32 originalWriterDepth, Int32 flushThreshold, JsonSerializerOptions options, WriteStack& state)
   at System.Text.Json.JsonSerializer.WriteAsyncCore(Stream utf8Json, Object value, Type inputType, JsonSerializerOptions options, CancellationToken cancellationToken)
   at Microsoft.AspNetCore.Mvc.Formatters.SystemTextJsonOutputFormatter.WriteResponseBodyAsync(OutputFormatterWriteContext context, Encoding selectedEncoding)
   at Microsoft.AspNetCore.Mvc.Formatters.SystemTextJsonOutputFormatter.WriteResponseBodyAsync(OutputFormatterWriteContext context, Encoding selectedEncoding)
   at Microsoft.AspNetCore.Mvc.Infrastructure.ResourceInvoker.<InvokeNextResultFilterAsync>g__Awaited|29_0[TFilter,TFilterAsync](ResourceInvoker invoker, Task lastTask, State next, Scope scope, Object state, Boolean isCompleted)
   at Microsoft.AspNetCore.Mvc.Infrastructure.ResourceInvoker.Rethrow(ResultExecutedContextSealed context)
   at Microsoft.AspNetCore.Mvc.Infrastructure.ResourceInvoker.ResultNext[TFilter,TFilterAsync](State& next, Scope& scope, Object& state, Boolean& isCompleted)
   at Microsoft.AspNetCore.Mvc.Infrastructure.ResourceInvoker.InvokeResultFilters()
--- End of stack trace from previous location where exception was thrown ---
   at Microsoft.AspNetCore.Mvc.Infrastructure.ResourceInvoker.<InvokeFilterPipelineAsync>g__Awaited|19_0(ResourceInvoker invoker, Task lastTask, State next, Scope scope, Object state, Boolean isCompleted)
   at Microsoft.AspNetCore.Mvc.Infrastructure.ResourceInvoker.<InvokeAsync>g__Awaited|17_0(ResourceInvoker invoker, Task task, IDisposable scope)
   at Microsoft.AspNetCore.Routing.EndpointMiddleware.<Invoke>g__AwaitRequestTask|6_0(Endpoint endpoint, Task requestTask, ILogger logger)
   at Microsoft.AspNetCore.Authorization.AuthorizationMiddleware.Invoke(HttpContext context)
   at Microsoft.AspNetCore.Diagnostics.DeveloperExceptionPageMiddleware.Invoke(HttpContext context)
2020-03-09T21:48:34.2404097-04:00  [INF] Application is shutting down... (90f52c38)
2020-03-09T21:48:44.3678113-04:00  [INF] Now listening on: "http://localhost:5000" (d826f4b8)
2020-03-09T21:48:44.3983823-04:00  [INF] Now listening on: "http://10.10.0.121:5000" (d826f4b8)
2020-03-09T21:48:44.3991442-04:00  [INF] Application started. Press Ctrl+C to shut down. (dcaefe54)
2020-03-09T21:48:44.3992619-04:00  [INF] Hosting environment: "Development" (c3307c92)
2020-03-09T21:48:44.3994320-04:00  [INF] Content root path: "/media/support/ExternalDiskTour/Templates/dotnet/webapiMongoDb" (b5d60022)
2020-03-09T21:48:49.3879698-04:00 0HLU4IKLN2AII:00000001 [ERR] webapiMongoDb.Models.TbRolesUser (50c424a3)
2020-03-09T21:48:49.8950889-04:00 0HLU4IKLN2AII:00000001 [ERR] An unhandled exception has occurred while executing the request. (48a46595)
System.NotSupportedException: The collection type 'Newtonsoft.Json.Linq.JObject' is not supported.
   at System.Text.Json.JsonPropertyInfoNotNullable`4.GetDictionaryKeyAndValueFromGenericDictionary(WriteStackFrame& writeStackFrame, String& key, Object& value)
   at System.Text.Json.JsonPropertyInfo.GetDictionaryKeyAndValue(WriteStackFrame& writeStackFrame, String& key, Object& value)
   at System.Text.Json.JsonSerializer.HandleDictionary(JsonClassInfo elementClassInfo, JsonSerializerOptions options, Utf8JsonWriter writer, WriteStack& state)
   at System.Text.Json.JsonSerializer.Write(Utf8JsonWriter writer, Int32 originalWriterDepth, Int32 flushThreshold, JsonSerializerOptions options, WriteStack& state)
   at System.Text.Json.JsonSerializer.WriteAsyncCore(Stream utf8Json, Object value, Type inputType, JsonSerializerOptions options, CancellationToken cancellationToken)
   at Microsoft.AspNetCore.Mvc.Formatters.SystemTextJsonOutputFormatter.WriteResponseBodyAsync(OutputFormatterWriteContext context, Encoding selectedEncoding)
   at Microsoft.AspNetCore.Mvc.Formatters.SystemTextJsonOutputFormatter.WriteResponseBodyAsync(OutputFormatterWriteContext context, Encoding selectedEncoding)
   at Microsoft.AspNetCore.Mvc.Infrastructure.ResourceInvoker.<InvokeNextResultFilterAsync>g__Awaited|29_0[TFilter,TFilterAsync](ResourceInvoker invoker, Task lastTask, State next, Scope scope, Object state, Boolean isCompleted)
   at Microsoft.AspNetCore.Mvc.Infrastructure.ResourceInvoker.Rethrow(ResultExecutedContextSealed context)
   at Microsoft.AspNetCore.Mvc.Infrastructure.ResourceInvoker.ResultNext[TFilter,TFilterAsync](State& next, Scope& scope, Object& state, Boolean& isCompleted)
   at Microsoft.AspNetCore.Mvc.Infrastructure.ResourceInvoker.InvokeResultFilters()
--- End of stack trace from previous location where exception was thrown ---
   at Microsoft.AspNetCore.Mvc.Infrastructure.ResourceInvoker.<InvokeFilterPipelineAsync>g__Awaited|19_0(ResourceInvoker invoker, Task lastTask, State next, Scope scope, Object state, Boolean isCompleted)
   at Microsoft.AspNetCore.Mvc.Infrastructure.ResourceInvoker.<InvokeAsync>g__Awaited|17_0(ResourceInvoker invoker, Task task, IDisposable scope)
   at Microsoft.AspNetCore.Routing.EndpointMiddleware.<Invoke>g__AwaitRequestTask|6_0(Endpoint endpoint, Task requestTask, ILogger logger)
   at Microsoft.AspNetCore.Authorization.AuthorizationMiddleware.Invoke(HttpContext context)
   at Microsoft.AspNetCore.Diagnostics.DeveloperExceptionPageMiddleware.Invoke(HttpContext context)
2020-03-09T21:49:27.5046854-04:00  [INF] Application is shutting down... (90f52c38)
2020-03-09T21:49:37.7877680-04:00  [INF] Now listening on: "http://localhost:5000" (d826f4b8)
2020-03-09T21:49:37.8118165-04:00  [INF] Now listening on: "http://10.10.0.121:5000" (d826f4b8)
2020-03-09T21:49:37.8123079-04:00  [INF] Application started. Press Ctrl+C to shut down. (dcaefe54)
2020-03-09T21:49:37.8123835-04:00  [INF] Hosting environment: "Development" (c3307c92)
2020-03-09T21:49:37.8125026-04:00  [INF] Content root path: "/media/support/ExternalDiskTour/Templates/dotnet/webapiMongoDb" (b5d60022)
2020-03-09T21:49:48.3427120-04:00 0HLU4IL5VNDEM:00000001 [ERR] Aqui... webapiMongoDb.Models.TbRolesUser (2032545d)
2020-03-09T21:49:48.9051102-04:00 0HLU4IL5VNDEM:00000001 [ERR] An unhandled exception has occurred while executing the request. (48a46595)
System.NotSupportedException: The collection type 'Newtonsoft.Json.Linq.JObject' is not supported.
   at System.Text.Json.JsonPropertyInfoNotNullable`4.GetDictionaryKeyAndValueFromGenericDictionary(WriteStackFrame& writeStackFrame, String& key, Object& value)
   at System.Text.Json.JsonPropertyInfo.GetDictionaryKeyAndValue(WriteStackFrame& writeStackFrame, String& key, Object& value)
   at System.Text.Json.JsonSerializer.HandleDictionary(JsonClassInfo elementClassInfo, JsonSerializerOptions options, Utf8JsonWriter writer, WriteStack& state)
   at System.Text.Json.JsonSerializer.Write(Utf8JsonWriter writer, Int32 originalWriterDepth, Int32 flushThreshold, JsonSerializerOptions options, WriteStack& state)
   at System.Text.Json.JsonSerializer.WriteAsyncCore(Stream utf8Json, Object value, Type inputType, JsonSerializerOptions options, CancellationToken cancellationToken)
   at Microsoft.AspNetCore.Mvc.Formatters.SystemTextJsonOutputFormatter.WriteResponseBodyAsync(OutputFormatterWriteContext context, Encoding selectedEncoding)
   at Microsoft.AspNetCore.Mvc.Formatters.SystemTextJsonOutputFormatter.WriteResponseBodyAsync(OutputFormatterWriteContext context, Encoding selectedEncoding)
   at Microsoft.AspNetCore.Mvc.Infrastructure.ResourceInvoker.<InvokeNextResultFilterAsync>g__Awaited|29_0[TFilter,TFilterAsync](ResourceInvoker invoker, Task lastTask, State next, Scope scope, Object state, Boolean isCompleted)
   at Microsoft.AspNetCore.Mvc.Infrastructure.ResourceInvoker.Rethrow(ResultExecutedContextSealed context)
   at Microsoft.AspNetCore.Mvc.Infrastructure.ResourceInvoker.ResultNext[TFilter,TFilterAsync](State& next, Scope& scope, Object& state, Boolean& isCompleted)
   at Microsoft.AspNetCore.Mvc.Infrastructure.ResourceInvoker.InvokeResultFilters()
--- End of stack trace from previous location where exception was thrown ---
   at Microsoft.AspNetCore.Mvc.Infrastructure.ResourceInvoker.<InvokeFilterPipelineAsync>g__Awaited|19_0(ResourceInvoker invoker, Task lastTask, State next, Scope scope, Object state, Boolean isCompleted)
   at Microsoft.AspNetCore.Mvc.Infrastructure.ResourceInvoker.<InvokeAsync>g__Awaited|17_0(ResourceInvoker invoker, Task task, IDisposable scope)
   at Microsoft.AspNetCore.Routing.EndpointMiddleware.<Invoke>g__AwaitRequestTask|6_0(Endpoint endpoint, Task requestTask, ILogger logger)
   at Microsoft.AspNetCore.Authorization.AuthorizationMiddleware.Invoke(HttpContext context)
   at Microsoft.AspNetCore.Diagnostics.DeveloperExceptionPageMiddleware.Invoke(HttpContext context)
2020-03-09T21:50:08.3717390-04:00  [INF] Application is shutting down... (90f52c38)
2020-03-09T21:50:18.9542898-04:00  [INF] Now listening on: "http://localhost:5000" (d826f4b8)
2020-03-09T21:50:18.9853420-04:00  [INF] Now listening on: "http://10.10.0.121:5000" (d826f4b8)
2020-03-09T21:50:18.9861202-04:00  [INF] Application started. Press Ctrl+C to shut down. (dcaefe54)
2020-03-09T21:50:18.9862389-04:00  [INF] Hosting environment: "Development" (c3307c92)
2020-03-09T21:50:18.9864251-04:00  [INF] Content root path: "/media/support/ExternalDiskTour/Templates/dotnet/webapiMongoDb" (b5d60022)
2020-03-09T21:51:38.9696339-04:00 0HLU4ILHMCUUS:00000001 [ERR] Aqui... asdsad (eaffb04b)
2020-03-09T21:51:39.5723592-04:00 0HLU4ILHMCUUS:00000001 [ERR] An unhandled exception has occurred while executing the request. (48a46595)
System.NotSupportedException: The collection type 'Newtonsoft.Json.Linq.JObject' is not supported.
   at System.Text.Json.JsonPropertyInfoNotNullable`4.GetDictionaryKeyAndValueFromGenericDictionary(WriteStackFrame& writeStackFrame, String& key, Object& value)
   at System.Text.Json.JsonPropertyInfo.GetDictionaryKeyAndValue(WriteStackFrame& writeStackFrame, String& key, Object& value)
   at System.Text.Json.JsonSerializer.HandleDictionary(JsonClassInfo elementClassInfo, JsonSerializerOptions options, Utf8JsonWriter writer, WriteStack& state)
   at System.Text.Json.JsonSerializer.Write(Utf8JsonWriter writer, Int32 originalWriterDepth, Int32 flushThreshold, JsonSerializerOptions options, WriteStack& state)
   at System.Text.Json.JsonSerializer.WriteAsyncCore(Stream utf8Json, Object value, Type inputType, JsonSerializerOptions options, CancellationToken cancellationToken)
   at Microsoft.AspNetCore.Mvc.Formatters.SystemTextJsonOutputFormatter.WriteResponseBodyAsync(OutputFormatterWriteContext context, Encoding selectedEncoding)
   at Microsoft.AspNetCore.Mvc.Formatters.SystemTextJsonOutputFormatter.WriteResponseBodyAsync(OutputFormatterWriteContext context, Encoding selectedEncoding)
   at Microsoft.AspNetCore.Mvc.Infrastructure.ResourceInvoker.<InvokeNextResultFilterAsync>g__Awaited|29_0[TFilter,TFilterAsync](ResourceInvoker invoker, Task lastTask, State next, Scope scope, Object state, Boolean isCompleted)
   at Microsoft.AspNetCore.Mvc.Infrastructure.ResourceInvoker.Rethrow(ResultExecutedContextSealed context)
   at Microsoft.AspNetCore.Mvc.Infrastructure.ResourceInvoker.ResultNext[TFilter,TFilterAsync](State& next, Scope& scope, Object& state, Boolean& isCompleted)
   at Microsoft.AspNetCore.Mvc.Infrastructure.ResourceInvoker.InvokeResultFilters()
--- End of stack trace from previous location where exception was thrown ---
   at Microsoft.AspNetCore.Mvc.Infrastructure.ResourceInvoker.<InvokeFilterPipelineAsync>g__Awaited|19_0(ResourceInvoker invoker, Task lastTask, State next, Scope scope, Object state, Boolean isCompleted)
   at Microsoft.AspNetCore.Mvc.Infrastructure.ResourceInvoker.<InvokeAsync>g__Awaited|17_0(ResourceInvoker invoker, Task task, IDisposable scope)
   at Microsoft.AspNetCore.Routing.EndpointMiddleware.<Invoke>g__AwaitRequestTask|6_0(Endpoint endpoint, Task requestTask, ILogger logger)
   at Microsoft.AspNetCore.Authorization.AuthorizationMiddleware.Invoke(HttpContext context)
   at Microsoft.AspNetCore.Diagnostics.DeveloperExceptionPageMiddleware.Invoke(HttpContext context)
2020-03-09T21:52:30.8253800-04:00  [INF] Application is shutting down... (90f52c38)
2020-03-09T21:52:40.7496542-04:00  [INF] Now listening on: "http://localhost:5000" (d826f4b8)
2020-03-09T21:52:40.7777058-04:00  [INF] Now listening on: "http://10.10.0.121:5000" (d826f4b8)
2020-03-09T21:52:40.7782637-04:00  [INF] Application started. Press Ctrl+C to shut down. (dcaefe54)
2020-03-09T21:52:40.7783500-04:00  [INF] Hosting environment: "Development" (c3307c92)
2020-03-09T21:52:40.7785229-04:00  [INF] Content root path: "/media/support/ExternalDiskTour/Templates/dotnet/webapiMongoDb" (b5d60022)
2020-03-09T21:52:43.4742873-04:00 0HLU4IMS3JOET:00000001 [ERR] Aqui... 5e66f2ea43b13863a5ad35c9 (8321a37c)
2020-03-09T21:52:44.0417338-04:00 0HLU4IMS3JOET:00000001 [ERR] An unhandled exception has occurred while executing the request. (48a46595)
System.NotSupportedException: The collection type 'Newtonsoft.Json.Linq.JObject' is not supported.
   at System.Text.Json.JsonPropertyInfoNotNullable`4.GetDictionaryKeyAndValueFromGenericDictionary(WriteStackFrame& writeStackFrame, String& key, Object& value)
   at System.Text.Json.JsonPropertyInfo.GetDictionaryKeyAndValue(WriteStackFrame& writeStackFrame, String& key, Object& value)
   at System.Text.Json.JsonSerializer.HandleDictionary(JsonClassInfo elementClassInfo, JsonSerializerOptions options, Utf8JsonWriter writer, WriteStack& state)
   at System.Text.Json.JsonSerializer.Write(Utf8JsonWriter writer, Int32 originalWriterDepth, Int32 flushThreshold, JsonSerializerOptions options, WriteStack& state)
   at System.Text.Json.JsonSerializer.WriteAsyncCore(Stream utf8Json, Object value, Type inputType, JsonSerializerOptions options, CancellationToken cancellationToken)
   at Microsoft.AspNetCore.Mvc.Formatters.SystemTextJsonOutputFormatter.WriteResponseBodyAsync(OutputFormatterWriteContext context, Encoding selectedEncoding)
   at Microsoft.AspNetCore.Mvc.Formatters.SystemTextJsonOutputFormatter.WriteResponseBodyAsync(OutputFormatterWriteContext context, Encoding selectedEncoding)
   at Microsoft.AspNetCore.Mvc.Infrastructure.ResourceInvoker.<InvokeNextResultFilterAsync>g__Awaited|29_0[TFilter,TFilterAsync](ResourceInvoker invoker, Task lastTask, State next, Scope scope, Object state, Boolean isCompleted)
   at Microsoft.AspNetCore.Mvc.Infrastructure.ResourceInvoker.Rethrow(ResultExecutedContextSealed context)
   at Microsoft.AspNetCore.Mvc.Infrastructure.ResourceInvoker.ResultNext[TFilter,TFilterAsync](State& next, Scope& scope, Object& state, Boolean& isCompleted)
   at Microsoft.AspNetCore.Mvc.Infrastructure.ResourceInvoker.InvokeResultFilters()
--- End of stack trace from previous location where exception was thrown ---
   at Microsoft.AspNetCore.Mvc.Infrastructure.ResourceInvoker.<InvokeFilterPipelineAsync>g__Awaited|19_0(ResourceInvoker invoker, Task lastTask, State next, Scope scope, Object state, Boolean isCompleted)
   at Microsoft.AspNetCore.Mvc.Infrastructure.ResourceInvoker.<InvokeAsync>g__Awaited|17_0(ResourceInvoker invoker, Task task, IDisposable scope)
   at Microsoft.AspNetCore.Routing.EndpointMiddleware.<Invoke>g__AwaitRequestTask|6_0(Endpoint endpoint, Task requestTask, ILogger logger)
   at Microsoft.AspNetCore.Authorization.AuthorizationMiddleware.Invoke(HttpContext context)
   at Microsoft.AspNetCore.Diagnostics.DeveloperExceptionPageMiddleware.Invoke(HttpContext context)
2020-03-09T21:54:14.6202623-04:00  [INF] Application is shutting down... (90f52c38)
2020-03-09T21:54:25.3760196-04:00  [INF] Now listening on: "http://localhost:5000" (d826f4b8)
2020-03-09T21:54:25.4042701-04:00  [INF] Now listening on: "http://10.10.0.121:5000" (d826f4b8)
2020-03-09T21:54:25.4049986-04:00  [INF] Application started. Press Ctrl+C to shut down. (dcaefe54)
2020-03-09T21:54:25.4051355-04:00  [INF] Hosting environment: "Development" (c3307c92)
2020-03-09T21:54:25.4053224-04:00  [INF] Content root path: "/media/support/ExternalDiskTour/Templates/dotnet/webapiMongoDb" (b5d60022)
2020-03-09T21:54:41.1587430-04:00 0HLU4INR9MJPK:00000001 [ERR] Aqui... {"Id":"5e66f35ded8af064bb59312f","Name":"Administrador","Status":1,"IdRol":1,"IdUser":"idUser","Note":"NOtaa","IdCompany":"asdsad","DateAdd":"2020-03-09T21:54:27.397435-04:00"} (807e5655)
2020-03-09T21:55:11.9515745-04:00  [INF] Application is shutting down... (90f52c38)
2020-03-09T21:55:22.8665696-04:00  [INF] Now listening on: "http://localhost:5000" (d826f4b8)
2020-03-09T21:55:22.8907741-04:00  [INF] Now listening on: "http://10.10.0.121:5000" (d826f4b8)
2020-03-09T21:55:22.8914274-04:00  [INF] Application started. Press Ctrl+C to shut down. (dcaefe54)
2020-03-09T21:55:22.8915461-04:00  [INF] Hosting environment: "Development" (c3307c92)
2020-03-09T21:55:22.8917069-04:00  [INF] Content root path: "/media/support/ExternalDiskTour/Templates/dotnet/webapiMongoDb" (b5d60022)
2020-03-09T21:55:24.5476687-04:00  [INF] Application is shutting down... (90f52c38)
2020-03-09T21:55:35.1593270-04:00  [INF] Now listening on: "http://localhost:5000" (d826f4b8)
2020-03-09T21:55:35.1820315-04:00  [INF] Now listening on: "http://10.10.0.121:5000" (d826f4b8)
2020-03-09T21:55:35.1827391-04:00  [INF] Application started. Press Ctrl+C to shut down. (dcaefe54)
2020-03-09T21:55:35.1828964-04:00  [INF] Hosting environment: "Development" (c3307c92)
2020-03-09T21:55:35.1830341-04:00  [INF] Content root path: "/media/support/ExternalDiskTour/Templates/dotnet/webapiMongoDb" (b5d60022)
2020-03-09T21:55:44.2256734-04:00 0HLU4IOHO015R:00000001 [ERR] Aqui... {
  "data": {
    "Id": "5e66f39fa45cfe6628da584e",
    "Name": "Administrador",
    "Status": 1,
    "IdRol": 1,
    "IdUser": "idUser",
    "Note": "NOtaa",
    "IdCompany": "asdsad",
    "DateAdd": "2020-03-09T21:55:42.8230672-04:00"
  }
} (fc87d054)
2020-03-09T21:56:01.5048724-04:00  [INF] Application is shutting down... (90f52c38)
2020-03-09T21:56:12.6825269-04:00  [INF] Now listening on: "http://localhost:5000" (d826f4b8)
2020-03-09T21:56:12.7144592-04:00  [INF] Now listening on: "http://10.10.0.121:5000" (d826f4b8)
2020-03-09T21:56:12.7151984-04:00  [INF] Application started. Press Ctrl+C to shut down. (dcaefe54)
2020-03-09T21:56:12.7153212-04:00  [INF] Hosting environment: "Development" (c3307c92)
2020-03-09T21:56:12.7155010-04:00  [INF] Content root path: "/media/support/ExternalDiskTour/Templates/dotnet/webapiMongoDb" (b5d60022)
2020-03-09T21:56:18.3457094-04:00 0HLU4IOS1J7QO:00000001 [ERR] Aqui... {
  "data": {
    "Id": "5e66f3c15ce18566e2eb2551",
    "Name": "Administrador",
    "Status": 1,
    "IdRol": 1,
    "IdUser": "idUser",
    "Note": "NOtaa",
    "IdCompany": "asdsad",
    "DateAdd": "2020-03-09T21:56:17.3473673-04:00"
  }
} (29626be5)
2020-03-09T21:56:18.4819664-04:00 0HLU4IOS1J7QO:00000001 [ERR] An unhandled exception has occurred while executing the request. (48a46595)
System.NotSupportedException: The collection type 'Newtonsoft.Json.Linq.JObject' is not supported.
   at System.Text.Json.JsonPropertyInfoNotNullable`4.GetDictionaryKeyAndValueFromGenericDictionary(WriteStackFrame& writeStackFrame, String& key, Object& value)
   at System.Text.Json.JsonPropertyInfo.GetDictionaryKeyAndValue(WriteStackFrame& writeStackFrame, String& key, Object& value)
   at System.Text.Json.JsonSerializer.HandleDictionary(JsonClassInfo elementClassInfo, JsonSerializerOptions options, Utf8JsonWriter writer, WriteStack& state)
   at System.Text.Json.JsonSerializer.Write(Utf8JsonWriter writer, Int32 originalWriterDepth, Int32 flushThreshold, JsonSerializerOptions options, WriteStack& state)
   at System.Text.Json.JsonSerializer.WriteAsyncCore(Stream utf8Json, Object value, Type inputType, JsonSerializerOptions options, CancellationToken cancellationToken)
   at Microsoft.AspNetCore.Mvc.Formatters.SystemTextJsonOutputFormatter.WriteResponseBodyAsync(OutputFormatterWriteContext context, Encoding selectedEncoding)
   at Microsoft.AspNetCore.Mvc.Formatters.SystemTextJsonOutputFormatter.WriteResponseBodyAsync(OutputFormatterWriteContext context, Encoding selectedEncoding)
   at Microsoft.AspNetCore.Mvc.Infrastructure.ResourceInvoker.<InvokeNextResultFilterAsync>g__Awaited|29_0[TFilter,TFilterAsync](ResourceInvoker invoker, Task lastTask, State next, Scope scope, Object state, Boolean isCompleted)
   at Microsoft.AspNetCore.Mvc.Infrastructure.ResourceInvoker.Rethrow(ResultExecutedContextSealed context)
   at Microsoft.AspNetCore.Mvc.Infrastructure.ResourceInvoker.ResultNext[TFilter,TFilterAsync](State& next, Scope& scope, Object& state, Boolean& isCompleted)
   at Microsoft.AspNetCore.Mvc.Infrastructure.ResourceInvoker.InvokeResultFilters()
--- End of stack trace from previous location where exception was thrown ---
   at Microsoft.AspNetCore.Mvc.Infrastructure.ResourceInvoker.<InvokeFilterPipelineAsync>g__Awaited|19_0(ResourceInvoker invoker, Task lastTask, State next, Scope scope, Object state, Boolean isCompleted)
   at Microsoft.AspNetCore.Mvc.Infrastructure.ResourceInvoker.<InvokeAsync>g__Awaited|17_0(ResourceInvoker invoker, Task task, IDisposable scope)
   at Microsoft.AspNetCore.Routing.EndpointMiddleware.<Invoke>g__AwaitRequestTask|6_0(Endpoint endpoint, Task requestTask, ILogger logger)
   at Microsoft.AspNetCore.Authorization.AuthorizationMiddleware.Invoke(HttpContext context)
   at Microsoft.AspNetCore.Diagnostics.DeveloperExceptionPageMiddleware.Invoke(HttpContext context)
2020-03-09T21:57:01.4113038-04:00  [INF] Application is shutting down... (90f52c38)
2020-03-09T21:57:14.9971261-04:00  [INF] Now listening on: "http://localhost:5000" (d826f4b8)
2020-03-09T21:57:15.0286923-04:00  [INF] Now listening on: "http://10.10.0.121:5000" (d826f4b8)
2020-03-09T21:57:15.0294509-04:00  [INF] Application started. Press Ctrl+C to shut down. (dcaefe54)
2020-03-09T21:57:15.0295723-04:00  [INF] Hosting environment: "Development" (c3307c92)
2020-03-09T21:57:15.0296975-04:00  [INF] Content root path: "/media/support/ExternalDiskTour/Templates/dotnet/webapiMongoDb" (b5d60022)
2020-03-09T21:57:17.9016575-04:00 0HLU4IPDQQA2F:00000001 [ERR] Aqui... {
  "data": {
    "Id": "5e66f3fdf8a4d16821d37352",
    "Name": "Administrador",
    "Status": 1,
    "IdRol": 1,
    "IdUser": "idUser",
    "Note": "NOtaa",
    "IdCompany": "asdsad",
    "DateAdd": "2020-03-09T21:57:16.96283-04:00"
  }
} (c28592db)
2020-03-09T21:57:18.0422563-04:00 0HLU4IPDQQA2F:00000001 [ERR] An unhandled exception has occurred while executing the request. (48a46595)
System.NotSupportedException: The collection type 'Newtonsoft.Json.Linq.JObject' on '<>f__AnonymousType5`1[Newtonsoft.Json.Linq.JObject].envio' is not supported.
   at System.Text.Json.JsonPropertyInfoNotNullable`4.GetDictionaryKeyAndValueFromGenericDictionary(WriteStackFrame& writeStackFrame, String& key, Object& value)
   at System.Text.Json.JsonPropertyInfo.GetDictionaryKeyAndValue(WriteStackFrame& writeStackFrame, String& key, Object& value)
   at System.Text.Json.JsonSerializer.HandleDictionary(JsonClassInfo elementClassInfo, JsonSerializerOptions options, Utf8JsonWriter writer, WriteStack& state)
   at System.Text.Json.JsonSerializer.Write(Utf8JsonWriter writer, Int32 originalWriterDepth, Int32 flushThreshold, JsonSerializerOptions options, WriteStack& state)
   at System.Text.Json.JsonSerializer.WriteAsyncCore(Stream utf8Json, Object value, Type inputType, JsonSerializerOptions options, CancellationToken cancellationToken)
   at Microsoft.AspNetCore.Mvc.Formatters.SystemTextJsonOutputFormatter.WriteResponseBodyAsync(OutputFormatterWriteContext context, Encoding selectedEncoding)
   at Microsoft.AspNetCore.Mvc.Formatters.SystemTextJsonOutputFormatter.WriteResponseBodyAsync(OutputFormatterWriteContext context, Encoding selectedEncoding)
   at Microsoft.AspNetCore.Mvc.Infrastructure.ResourceInvoker.<InvokeNextResultFilterAsync>g__Awaited|29_0[TFilter,TFilterAsync](ResourceInvoker invoker, Task lastTask, State next, Scope scope, Object state, Boolean isCompleted)
   at Microsoft.AspNetCore.Mvc.Infrastructure.ResourceInvoker.Rethrow(ResultExecutedContextSealed context)
   at Microsoft.AspNetCore.Mvc.Infrastructure.ResourceInvoker.ResultNext[TFilter,TFilterAsync](State& next, Scope& scope, Object& state, Boolean& isCompleted)
   at Microsoft.AspNetCore.Mvc.Infrastructure.ResourceInvoker.InvokeResultFilters()
--- End of stack trace from previous location where exception was thrown ---
   at Microsoft.AspNetCore.Mvc.Infrastructure.ResourceInvoker.<InvokeFilterPipelineAsync>g__Awaited|19_0(ResourceInvoker invoker, Task lastTask, State next, Scope scope, Object state, Boolean isCompleted)
   at Microsoft.AspNetCore.Mvc.Infrastructure.ResourceInvoker.<InvokeAsync>g__Awaited|17_0(ResourceInvoker invoker, Task task, IDisposable scope)
   at Microsoft.AspNetCore.Routing.EndpointMiddleware.<Invoke>g__AwaitRequestTask|6_0(Endpoint endpoint, Task requestTask, ILogger logger)
   at Microsoft.AspNetCore.Authorization.AuthorizationMiddleware.Invoke(HttpContext context)
   at Microsoft.AspNetCore.Diagnostics.DeveloperExceptionPageMiddleware.Invoke(HttpContext context)
2020-03-09T21:57:45.5546151-04:00  [INF] Application is shutting down... (90f52c38)
2020-03-09T21:57:56.4934174-04:00  [INF] Now listening on: "http://localhost:5000" (d826f4b8)
2020-03-09T21:57:56.5219368-04:00  [INF] Now listening on: "http://10.10.0.121:5000" (d826f4b8)
2020-03-09T21:57:56.5226629-04:00  [INF] Application started. Press Ctrl+C to shut down. (dcaefe54)
2020-03-09T21:57:56.5228063-04:00  [INF] Hosting environment: "Development" (c3307c92)
2020-03-09T21:57:56.5230091-04:00  [INF] Content root path: "/media/support/ExternalDiskTour/Templates/dotnet/webapiMongoDb" (b5d60022)
2020-03-09T21:59:34.6181434-04:00 0HLU4IPRV1V7D:00000001 [ERR] Aqui... {
  "data": {
    "Id": "5e66f48586308a68ebd0c1ba",
    "Name": "Administrador",
    "Status": 1,
    "IdRol": 1,
    "IdUser": "idUser",
    "Note": "NOtaa",
    "IdCompany": "asdsad",
    "DateAdd": "2020-03-09T21:59:33.5364221-04:00"
  }
} (d9ef0290)
2020-03-09T21:59:42.1004156-04:00 0HLU4IPRV1V7D:00000002 [ERR] Aqui... {
  "data": {
    "Id": "5e66f48e86308a68ebd0c1bb",
    "Name": "Administrador",
    "Status": 1,
    "IdRol": 1,
    "IdUser": "idUser",
    "Note": "NOtaa",
    "IdCompany": "asdsad",
    "DateAdd": "2020-03-09T21:59:42.0782251-04:00"
  }
} (84f931ce)
2020-03-09T22:00:50.3193292-04:00 0HLU4IPRV1V7D:00000003 [ERR] Aqui... {
  "data": {
    "Id": "5e66f4d286308a68ebd0c1bc",
    "Name": "Administrador",
    "Status": 1,
    "IdRol": 1,
    "IdUser": "idUser",
    "Note": "NOtaa",
    "IdCompany": "asdsad",
    "DateAdd": "2020-03-09T22:00:50.2998064-04:00"
  }
} (ec94a4fa)
2020-03-09T22:00:55.8508829-04:00 0HLU4IPRV1V7D:00000004 [ERR] Aqui... {
  "data": {
    "Id": "5e66f4d786308a68ebd0c1bd",
    "Name": "Administrador",
    "Status": 1,
    "IdRol": 1,
    "IdUser": "idUser",
    "Note": "NOtaa",
    "IdCompany": "asdsad",
    "DateAdd": "2020-03-09T22:00:55.8264494-04:00"
  }
} (7379345f)
2020-03-09T22:00:58.0871636-04:00 0HLU4IPRV1V7D:00000005 [ERR] Aqui... {
  "data": {
    "Id": "5e66f4da86308a68ebd0c1be",
    "Name": "Administrador",
    "Status": 1,
    "IdRol": 1,
    "IdUser": "idUser",
    "Note": "NOtaa",
    "IdCompany": "asdsad",
    "DateAdd": "2020-03-09T22:00:58.0674944-04:00"
  }
} (ee4565f6)
2020-03-09T22:01:27.8982526-04:00 0HLU4IPRV1V7D:00000006 [ERR] Aqui... {
  "data": {
    "Id": "5e66f4f786308a68ebd0c1bf",
    "Name": "Administrador",
    "Status": 1,
    "IdRol": 1,
    "IdUser": "idUser",
    "Note": "NOtaa",
    "IdCompany": "asdsad",
    "DateAdd": "2020-03-09T22:01:27.8643791-04:00"
  }
} (46594d43)
2020-03-09T22:01:47.6452010-04:00  [INF] Application is shutting down... (90f52c38)
2020-03-09T22:05:02.7346241-04:00  [INF] Now listening on: "http://localhost:5000" (d826f4b8)
2020-03-09T22:05:02.7641546-04:00  [INF] Now listening on: "http://10.10.0.121:5000" (d826f4b8)
2020-03-09T22:05:02.7647873-04:00  [INF] Application started. Press Ctrl+C to shut down. (dcaefe54)
2020-03-09T22:05:02.7648869-04:00  [INF] Hosting environment: "Development" (c3307c92)
2020-03-09T22:05:02.7649861-04:00  [INF] Content root path: "/media/support/ExternalDiskTour/Templates/dotnet/webapiMongoDb" (b5d60022)
2020-03-09T22:05:15.1683503-04:00  [INF] Application is shutting down... (90f52c38)
2020-03-09T22:05:24.5685721-04:00  [INF] Now listening on: "http://localhost:5000" (d826f4b8)
2020-03-09T22:05:24.5974392-04:00  [INF] Now listening on: "http://10.10.0.121:5000" (d826f4b8)
2020-03-09T22:05:24.5981217-04:00  [INF] Application started. Press Ctrl+C to shut down. (dcaefe54)
2020-03-09T22:05:24.5982397-04:00  [INF] Hosting environment: "Development" (c3307c92)
2020-03-09T22:05:24.5984040-04:00  [INF] Content root path: "/media/support/ExternalDiskTour/Templates/dotnet/webapiMongoDb" (b5d60022)
2020-03-09T22:05:59.6031104-04:00 0HLU4IU18AJFA:00000001 [ERR] Aqui... {
  "data": [
    {
      "Id": "5e66f1cbbff0b05fa9e95127",
      "Name": "Administrador",
      "Status": 1,
      "IdRol": 1,
      "IdUser": "idUser",
      "Note": "NOtaa",
      "IdCompany": "asdsad",
      "DateAdd": "2020-03-10T01:47:51.687Z"
    },
    {
      "Id": "5e66f1ff4e0f0b60f4b9a176",
      "Name": "Administrador",
      "Status": 1,
      "IdRol": 1,
      "IdUser": "idUser",
      "Note": "NOtaa",
      "IdCompany": "asdsad",
      "DateAdd": "2020-03-10T01:48:46.54Z"
    },
    {
      "Id": "5e66f23b5e3c6161cbfa4398",
      "Name": "Administrador",
      "Status": 1,
      "IdRol": 1,
      "IdUser": "idUser",
      "Note": "NOtaa",
      "IdCompany": "asdsad",
      "DateAdd": "2020-03-10T01:49:46.95Z"
    },
    {
      "Id": "5e66f2aa3857f7629d704f45",
      "Name": "Administrador",
      "Status": 1,
      "IdRol": 1,
      "IdUser": "idUser",
      "Note": "NOtaa",
      "IdCompany": "asdsad",
      "DateAdd": "2020-03-10T01:51:38.323Z"
    },
    {
      "Id": "5e66f2ea43b13863a5ad35c9",
      "Name": "Administrador",
      "Status": 1,
      "IdRol": 1,
      "IdUser": "idUser",
      "Note": "NOtaa",
      "IdCompany": "asdsad",
      "DateAdd": "2020-03-10T01:52:42.761Z"
    },
    {
      "Id": "5e66f35ded8af064bb59312f",
      "Name": "Administrador",
      "Status": 1,
      "IdRol": 1,
      "IdUser": "idUser",
      "Note": "NOtaa",
      "IdCompany": "asdsad",
      "DateAdd": "2020-03-10T01:54:27.397Z"
    },
    {
      "Id": "5e66f39fa45cfe6628da584e",
      "Name": "Administrador",
      "Status": 1,
      "IdRol": 1,
      "IdUser": "idUser",
      "Note": "NOtaa",
      "IdCompany": "asdsad",
      "DateAdd": "2020-03-10T01:55:42.823Z"
    },
    {
      "Id": "5e66f3c15ce18566e2eb2551",
      "Name": "Administrador",
      "Status": 1,
      "IdRol": 1,
      "IdUser": "idUser",
      "Note": "NOtaa",
      "IdCompany": "asdsad",
      "DateAdd": "2020-03-10T01:56:17.347Z"
    },
    {
      "Id": "5e66f3fdf8a4d16821d37352",
      "Name": "Administrador",
      "Status": 1,
      "IdRol": 1,
      "IdUser": "idUser",
      "Note": "NOtaa",
      "IdCompany": "asdsad",
      "DateAdd": "2020-03-10T01:57:16.962Z"
    },
    {
      "Id": "5e66f48586308a68ebd0c1ba",
      "Name": "Administrador",
      "Status": 1,
      "IdRol": 1,
      "IdUser": "idUser",
      "Note": "NOtaa",
      "IdCompany": "asdsad",
      "DateAdd": "2020-03-10T01:59:33.536Z"
    },
    {
      "Id": "5e66f48e86308a68ebd0c1bb",
      "Name": "Administrador",
      "Status": 1,
      "IdRol": 1,
      "IdUser": "idUser",
      "Note": "NOtaa",
      "IdCompany": "asdsad",
      "DateAdd": "2020-03-10T01:59:42.078Z"
    },
    {
      "Id": "5e66f4d286308a68ebd0c1bc",
      "Name": "Administrador",
      "Status": 1,
      "IdRol": 1,
      "IdUser": "idUser",
      "Note": "NOtaa",
      "IdCompany": "asdsad",
      "DateAdd": "2020-03-10T02:00:50.299Z"
    },
    {
      "Id": "5e66f4d786308a68ebd0c1bd",
      "Name": "Administrador",
      "Status": 1,
      "IdRol": 1,
      "IdUser": "idUser",
      "Note": "NOtaa",
      "IdCompany": "asdsad",
      "DateAdd": "2020-03-10T02:00:55.826Z"
    },
    {
      "Id": "5e66f4da86308a68ebd0c1be",
      "Name": "Administrador",
      "Status": 1,
      "IdRol": 1,
      "IdUser": "idUser",
      "Note": "NOtaa",
      "IdCompany": "asdsad",
      "DateAdd": "2020-03-10T02:00:58.067Z"
    },
    {
      "Id": "5e66f4f786308a68ebd0c1bf",
      "Name": "Administrador",
      "Status": 1,
      "IdRol": 1,
      "IdUser": "idUser",
      "Note": "NOtaa",
      "IdCompany": "asdsad",
      "DateAdd": "2020-03-10T02:01:27.864Z"
    }
  ]
} (0fa061f6)
2020-03-09T22:07:27.2746657-04:00 0HLU4IU18AJFA:00000002 [ERR] Aqui... {
  "data": [
    {
      "Id": "5e66f1cbbff0b05fa9e95127",
      "Name": "Administrador",
      "Status": 1,
      "IdRol": 1,
      "IdUser": "idUser",
      "Note": "NOtaa",
      "IdCompany": "asdsad",
      "DateAdd": "2020-03-10T01:47:51.687Z"
    },
    {
      "Id": "5e66f1ff4e0f0b60f4b9a176",
      "Name": "Administrador",
      "Status": 1,
      "IdRol": 1,
      "IdUser": "idUser",
      "Note": "NOtaa",
      "IdCompany": "asdsad",
      "DateAdd": "2020-03-10T01:48:46.54Z"
    },
    {
      "Id": "5e66f23b5e3c6161cbfa4398",
      "Name": "Administrador",
      "Status": 1,
      "IdRol": 1,
      "IdUser": "idUser",
      "Note": "NOtaa",
      "IdCompany": "asdsad",
      "DateAdd": "2020-03-10T01:49:46.95Z"
    },
    {
      "Id": "5e66f2aa3857f7629d704f45",
      "Name": "Administrador",
      "Status": 1,
      "IdRol": 1,
      "IdUser": "idUser",
      "Note": "NOtaa",
      "IdCompany": "asdsad",
      "DateAdd": "2020-03-10T01:51:38.323Z"
    },
    {
      "Id": "5e66f2ea43b13863a5ad35c9",
      "Name": "Administrador",
      "Status": 1,
      "IdRol": 1,
      "IdUser": "idUser",
      "Note": "NOtaa",
      "IdCompany": "asdsad",
      "DateAdd": "2020-03-10T01:52:42.761Z"
    },
    {
      "Id": "5e66f35ded8af064bb59312f",
      "Name": "Administrador",
      "Status": 1,
      "IdRol": 1,
      "IdUser": "idUser",
      "Note": "NOtaa",
      "IdCompany": "asdsad",
      "DateAdd": "2020-03-10T01:54:27.397Z"
    },
    {
      "Id": "5e66f39fa45cfe6628da584e",
      "Name": "Administrador",
      "Status": 1,
      "IdRol": 1,
      "IdUser": "idUser",
      "Note": "NOtaa",
      "IdCompany": "asdsad",
      "DateAdd": "2020-03-10T01:55:42.823Z"
    },
    {
      "Id": "5e66f3c15ce18566e2eb2551",
      "Name": "Administrador",
      "Status": 1,
      "IdRol": 1,
      "IdUser": "idUser",
      "Note": "NOtaa",
      "IdCompany": "asdsad",
      "DateAdd": "2020-03-10T01:56:17.347Z"
    },
    {
      "Id": "5e66f3fdf8a4d16821d37352",
      "Name": "Administrador",
      "Status": 1,
      "IdRol": 1,
      "IdUser": "idUser",
      "Note": "NOtaa",
      "IdCompany": "asdsad",
      "DateAdd": "2020-03-10T01:57:16.962Z"
    },
    {
      "Id": "5e66f48586308a68ebd0c1ba",
      "Name": "Administrador",
      "Status": 1,
      "IdRol": 1,
      "IdUser": "idUser",
      "Note": "NOtaa",
      "IdCompany": "asdsad",
      "DateAdd": "2020-03-10T01:59:33.536Z"
    },
    {
      "Id": "5e66f48e86308a68ebd0c1bb",
      "Name": "Administrador",
      "Status": 1,
      "IdRol": 1,
      "IdUser": "idUser",
      "Note": "NOtaa",
      "IdCompany": "asdsad",
      "DateAdd": "2020-03-10T01:59:42.078Z"
    },
    {
      "Id": "5e66f4d286308a68ebd0c1bc",
      "Name": "Administrador",
      "Status": 1,
      "IdRol": 1,
      "IdUser": "idUser",
      "Note": "NOtaa",
      "IdCompany": "asdsad",
      "DateAdd": "2020-03-10T02:00:50.299Z"
    },
    {
      "Id": "5e66f4d786308a68ebd0c1bd",
      "Name": "Administrador",
      "Status": 1,
      "IdRol": 1,
      "IdUser": "idUser",
      "Note": "NOtaa",
      "IdCompany": "asdsad",
      "DateAdd": "2020-03-10T02:00:55.826Z"
    },
    {
      "Id": "5e66f4da86308a68ebd0c1be",
      "Name": "Administrador",
      "Status": 1,
      "IdRol": 1,
      "IdUser": "idUser",
      "Note": "NOtaa",
      "IdCompany": "asdsad",
      "DateAdd": "2020-03-10T02:00:58.067Z"
    },
    {
      "Id": "5e66f4f786308a68ebd0c1bf",
      "Name": "Administrador",
      "Status": 1,
      "IdRol": 1,
      "IdUser": "idUser",
      "Note": "NOtaa",
      "IdCompany": "asdsad",
      "DateAdd": "2020-03-10T02:01:27.864Z"
    }
  ]
} (0fa061f6)
2020-03-09T22:09:49.7448059-04:00 0HLU4IU18AJG0:00000001 [ERR] Aqui... {
  "data": [
    {
      "Id": "5e66f1cbbff0b05fa9e95127",
      "Name": "Administrador",
      "Status": 1,
      "IdRol": 1,
      "IdUser": "idUser",
      "Note": "NOtaa",
      "IdCompany": "asdsad",
      "DateAdd": "2020-03-10T01:47:51.687Z"
    },
    {
      "Id": "5e66f1ff4e0f0b60f4b9a176",
      "Name": "Administrador",
      "Status": 1,
      "IdRol": 1,
      "IdUser": "idUser",
      "Note": "NOtaa",
      "IdCompany": "asdsad",
      "DateAdd": "2020-03-10T01:48:46.54Z"
    },
    {
      "Id": "5e66f23b5e3c6161cbfa4398",
      "Name": "Administrador",
      "Status": 1,
      "IdRol": 1,
      "IdUser": "idUser",
      "Note": "NOtaa",
      "IdCompany": "asdsad",
      "DateAdd": "2020-03-10T01:49:46.95Z"
    },
    {
      "Id": "5e66f2aa3857f7629d704f45",
      "Name": "Administrador",
      "Status": 1,
      "IdRol": 1,
      "IdUser": "idUser",
      "Note": "NOtaa",
      "IdCompany": "asdsad",
      "DateAdd": "2020-03-10T01:51:38.323Z"
    },
    {
      "Id": "5e66f2ea43b13863a5ad35c9",
      "Name": "Administrador",
      "Status": 1,
      "IdRol": 1,
      "IdUser": "idUser",
      "Note": "NOtaa",
      "IdCompany": "asdsad",
      "DateAdd": "2020-03-10T01:52:42.761Z"
    },
    {
      "Id": "5e66f35ded8af064bb59312f",
      "Name": "Administrador",
      "Status": 1,
      "IdRol": 1,
      "IdUser": "idUser",
      "Note": "NOtaa",
      "IdCompany": "asdsad",
      "DateAdd": "2020-03-10T01:54:27.397Z"
    },
    {
      "Id": "5e66f39fa45cfe6628da584e",
      "Name": "Administrador",
      "Status": 1,
      "IdRol": 1,
      "IdUser": "idUser",
      "Note": "NOtaa",
      "IdCompany": "asdsad",
      "DateAdd": "2020-03-10T01:55:42.823Z"
    },
    {
      "Id": "5e66f3c15ce18566e2eb2551",
      "Name": "Administrador",
      "Status": 1,
      "IdRol": 1,
      "IdUser": "idUser",
      "Note": "NOtaa",
      "IdCompany": "asdsad",
      "DateAdd": "2020-03-10T01:56:17.347Z"
    },
    {
      "Id": "5e66f3fdf8a4d16821d37352",
      "Name": "Administrador",
      "Status": 1,
      "IdRol": 1,
      "IdUser": "idUser",
      "Note": "NOtaa",
      "IdCompany": "asdsad",
      "DateAdd": "2020-03-10T01:57:16.962Z"
    },
    {
      "Id": "5e66f48586308a68ebd0c1ba",
      "Name": "Administrador",
      "Status": 1,
      "IdRol": 1,
      "IdUser": "idUser",
      "Note": "NOtaa",
      "IdCompany": "asdsad",
      "DateAdd": "2020-03-10T01:59:33.536Z"
    },
    {
      "Id": "5e66f48e86308a68ebd0c1bb",
      "Name": "Administrador",
      "Status": 1,
      "IdRol": 1,
      "IdUser": "idUser",
      "Note": "NOtaa",
      "IdCompany": "asdsad",
      "DateAdd": "2020-03-10T01:59:42.078Z"
    },
    {
      "Id": "5e66f4d286308a68ebd0c1bc",
      "Name": "Administrador",
      "Status": 1,
      "IdRol": 1,
      "IdUser": "idUser",
      "Note": "NOtaa",
      "IdCompany": "asdsad",
      "DateAdd": "2020-03-10T02:00:50.299Z"
    },
    {
      "Id": "5e66f4d786308a68ebd0c1bd",
      "Name": "Administrador",
      "Status": 1,
      "IdRol": 1,
      "IdUser": "idUser",
      "Note": "NOtaa",
      "IdCompany": "asdsad",
      "DateAdd": "2020-03-10T02:00:55.826Z"
    },
    {
      "Id": "5e66f4da86308a68ebd0c1be",
      "Name": "Administrador",
      "Status": 1,
      "IdRol": 1,
      "IdUser": "idUser",
      "Note": "NOtaa",
      "IdCompany": "asdsad",
      "DateAdd": "2020-03-10T02:00:58.067Z"
    },
    {
      "Id": "5e66f4f786308a68ebd0c1bf",
      "Name": "Administrador",
      "Status": 1,
      "IdRol": 1,
      "IdUser": "idUser",
      "Note": "NOtaa",
      "IdCompany": "asdsad",
      "DateAdd": "2020-03-10T02:01:27.864Z"
    }
  ]
} (0fa061f6)
2020-03-09T22:10:07.6996332-04:00 0HLU4IU18AJG0:00000002 [ERR] Aqui... {
  "data": [
    {
      "Id": "5e66f1cbbff0b05fa9e95127",
      "Name": "Administrador",
      "Status": 1,
      "IdRol": 1,
      "IdUser": "idUser",
      "Note": "NOtaa",
      "IdCompany": "asdsad",
      "DateAdd": "2020-03-10T01:47:51.687Z"
    },
    {
      "Id": "5e66f1ff4e0f0b60f4b9a176",
      "Name": "Administrador",
      "Status": 1,
      "IdRol": 1,
      "IdUser": "idUser",
      "Note": "NOtaa",
      "IdCompany": "asdsad",
      "DateAdd": "2020-03-10T01:48:46.54Z"
    },
    {
      "Id": "5e66f23b5e3c6161cbfa4398",
      "Name": "Administrador",
      "Status": 1,
      "IdRol": 1,
      "IdUser": "idUser",
      "Note": "NOtaa",
      "IdCompany": "asdsad",
      "DateAdd": "2020-03-10T01:49:46.95Z"
    },
    {
      "Id": "5e66f2aa3857f7629d704f45",
      "Name": "Administrador",
      "Status": 1,
      "IdRol": 1,
      "IdUser": "idUser",
      "Note": "NOtaa",
      "IdCompany": "asdsad",
      "DateAdd": "2020-03-10T01:51:38.323Z"
    },
    {
      "Id": "5e66f2ea43b13863a5ad35c9",
      "Name": "Administrador",
      "Status": 1,
      "IdRol": 1,
      "IdUser": "idUser",
      "Note": "NOtaa",
      "IdCompany": "asdsad",
      "DateAdd": "2020-03-10T01:52:42.761Z"
    },
    {
      "Id": "5e66f35ded8af064bb59312f",
      "Name": "Administrador",
      "Status": 1,
      "IdRol": 1,
      "IdUser": "idUser",
      "Note": "NOtaa",
      "IdCompany": "asdsad",
      "DateAdd": "2020-03-10T01:54:27.397Z"
    },
    {
      "Id": "5e66f39fa45cfe6628da584e",
      "Name": "Administrador",
      "Status": 1,
      "IdRol": 1,
      "IdUser": "idUser",
      "Note": "NOtaa",
      "IdCompany": "asdsad",
      "DateAdd": "2020-03-10T01:55:42.823Z"
    },
    {
      "Id": "5e66f3c15ce18566e2eb2551",
      "Name": "Administrador",
      "Status": 1,
      "IdRol": 1,
      "IdUser": "idUser",
      "Note": "NOtaa",
      "IdCompany": "asdsad",
      "DateAdd": "2020-03-10T01:56:17.347Z"
    },
    {
      "Id": "5e66f3fdf8a4d16821d37352",
      "Name": "Administrador",
      "Status": 1,
      "IdRol": 1,
      "IdUser": "idUser",
      "Note": "NOtaa",
      "IdCompany": "asdsad",
      "DateAdd": "2020-03-10T01:57:16.962Z"
    },
    {
      "Id": "5e66f48586308a68ebd0c1ba",
      "Name": "Administrador",
      "Status": 1,
      "IdRol": 1,
      "IdUser": "idUser",
      "Note": "NOtaa",
      "IdCompany": "asdsad",
      "DateAdd": "2020-03-10T01:59:33.536Z"
    },
    {
      "Id": "5e66f48e86308a68ebd0c1bb",
      "Name": "Administrador",
      "Status": 1,
      "IdRol": 1,
      "IdUser": "idUser",
      "Note": "NOtaa",
      "IdCompany": "asdsad",
      "DateAdd": "2020-03-10T01:59:42.078Z"
    },
    {
      "Id": "5e66f4d286308a68ebd0c1bc",
      "Name": "Administrador",
      "Status": 1,
      "IdRol": 1,
      "IdUser": "idUser",
      "Note": "NOtaa",
      "IdCompany": "asdsad",
      "DateAdd": "2020-03-10T02:00:50.299Z"
    },
    {
      "Id": "5e66f4d786308a68ebd0c1bd",
      "Name": "Administrador",
      "Status": 1,
      "IdRol": 1,
      "IdUser": "idUser",
      "Note": "NOtaa",
      "IdCompany": "asdsad",
      "DateAdd": "2020-03-10T02:00:55.826Z"
    },
    {
      "Id": "5e66f4da86308a68ebd0c1be",
      "Name": "Administrador",
      "Status": 1,
      "IdRol": 1,
      "IdUser": "idUser",
      "Note": "NOtaa",
      "IdCompany": "asdsad",
      "DateAdd": "2020-03-10T02:00:58.067Z"
    },
    {
      "Id": "5e66f4f786308a68ebd0c1bf",
      "Name": "Administrador",
      "Status": 1,
      "IdRol": 1,
      "IdUser": "idUser",
      "Note": "NOtaa",
      "IdCompany": "asdsad",
      "DateAdd": "2020-03-10T02:01:27.864Z"
    }
  ]
} (0fa061f6)
2020-03-09T22:10:28.5708117-04:00  [INF] Application is shutting down... (90f52c38)
2020-03-09T22:10:39.5604735-04:00  [INF] Now listening on: "http://localhost:5000" (d826f4b8)
2020-03-09T22:10:39.5906783-04:00  [INF] Now listening on: "http://10.10.0.121:5000" (d826f4b8)
2020-03-09T22:10:39.5914852-04:00  [INF] Application started. Press Ctrl+C to shut down. (dcaefe54)
2020-03-09T22:10:39.5916132-04:00  [INF] Hosting environment: "Development" (c3307c92)
2020-03-09T22:10:39.5917421-04:00  [INF] Content root path: "/media/support/ExternalDiskTour/Templates/dotnet/webapiMongoDb" (b5d60022)
2020-03-09T22:10:50.6625812-04:00 0HLU4J0TEIL4J:00000001 [ERR] Aqui... {
  "data": [
    {
      "Id": "5e66f1cbbff0b05fa9e95127",
      "Name": "Administrador",
      "Status": 1,
      "IdRol": 1,
      "IdUser": "idUser",
      "Note": "NOtaa",
      "IdCompany": "asdsad",
      "DateAdd": "2020-03-10T01:47:51.687Z"
    },
    {
      "Id": "5e66f1ff4e0f0b60f4b9a176",
      "Name": "Administrador",
      "Status": 1,
      "IdRol": 1,
      "IdUser": "idUser",
      "Note": "NOtaa",
      "IdCompany": "asdsad",
      "DateAdd": "2020-03-10T01:48:46.54Z"
    },
    {
      "Id": "5e66f23b5e3c6161cbfa4398",
      "Name": "Administrador",
      "Status": 1,
      "IdRol": 1,
      "IdUser": "idUser",
      "Note": "NOtaa",
      "IdCompany": "asdsad",
      "DateAdd": "2020-03-10T01:49:46.95Z"
    },
    {
      "Id": "5e66f2aa3857f7629d704f45",
      "Name": "Administrador",
      "Status": 1,
      "IdRol": 1,
      "IdUser": "idUser",
      "Note": "NOtaa",
      "IdCompany": "asdsad",
      "DateAdd": "2020-03-10T01:51:38.323Z"
    },
    {
      "Id": "5e66f2ea43b13863a5ad35c9",
      "Name": "Administrador",
      "Status": 1,
      "IdRol": 1,
      "IdUser": "idUser",
      "Note": "NOtaa",
      "IdCompany": "asdsad",
      "DateAdd": "2020-03-10T01:52:42.761Z"
    },
    {
      "Id": "5e66f35ded8af064bb59312f",
      "Name": "Administrador",
      "Status": 1,
      "IdRol": 1,
      "IdUser": "idUser",
      "Note": "NOtaa",
      "IdCompany": "asdsad",
      "DateAdd": "2020-03-10T01:54:27.397Z"
    },
    {
      "Id": "5e66f39fa45cfe6628da584e",
      "Name": "Administrador",
      "Status": 1,
      "IdRol": 1,
      "IdUser": "idUser",
      "Note": "NOtaa",
      "IdCompany": "asdsad",
      "DateAdd": "2020-03-10T01:55:42.823Z"
    },
    {
      "Id": "5e66f3c15ce18566e2eb2551",
      "Name": "Administrador",
      "Status": 1,
      "IdRol": 1,
      "IdUser": "idUser",
      "Note": "NOtaa",
      "IdCompany": "asdsad",
      "DateAdd": "2020-03-10T01:56:17.347Z"
    },
    {
      "Id": "5e66f3fdf8a4d16821d37352",
      "Name": "Administrador",
      "Status": 1,
      "IdRol": 1,
      "IdUser": "idUser",
      "Note": "NOtaa",
      "IdCompany": "asdsad",
      "DateAdd": "2020-03-10T01:57:16.962Z"
    },
    {
      "Id": "5e66f48586308a68ebd0c1ba",
      "Name": "Administrador",
      "Status": 1,
      "IdRol": 1,
      "IdUser": "idUser",
      "Note": "NOtaa",
      "IdCompany": "asdsad",
      "DateAdd": "2020-03-10T01:59:33.536Z"
    },
    {
      "Id": "5e66f48e86308a68ebd0c1bb",
      "Name": "Administrador",
      "Status": 1,
      "IdRol": 1,
      "IdUser": "idUser",
      "Note": "NOtaa",
      "IdCompany": "asdsad",
      "DateAdd": "2020-03-10T01:59:42.078Z"
    },
    {
      "Id": "5e66f4d286308a68ebd0c1bc",
      "Name": "Administrador",
      "Status": 1,
      "IdRol": 1,
      "IdUser": "idUser",
      "Note": "NOtaa",
      "IdCompany": "asdsad",
      "DateAdd": "2020-03-10T02:00:50.299Z"
    },
    {
      "Id": "5e66f4d786308a68ebd0c1bd",
      "Name": "Administrador",
      "Status": 1,
      "IdRol": 1,
      "IdUser": "idUser",
      "Note": "NOtaa",
      "IdCompany": "asdsad",
      "DateAdd": "2020-03-10T02:00:55.826Z"
    },
    {
      "Id": "5e66f4da86308a68ebd0c1be",
      "Name": "Administrador",
      "Status": 1,
      "IdRol": 1,
      "IdUser": "idUser",
      "Note": "NOtaa",
      "IdCompany": "asdsad",
      "DateAdd": "2020-03-10T02:00:58.067Z"
    },
    {
      "Id": "5e66f4f786308a68ebd0c1bf",
      "Name": "Administrador",
      "Status": 1,
      "IdRol": 1,
      "IdUser": "idUser",
      "Note": "NOtaa",
      "IdCompany": "asdsad",
      "DateAdd": "2020-03-10T02:01:27.864Z"
    }
  ]
} (0fa061f6)
2020-03-09T22:11:26.8274453-04:00 0HLU4J0TEIL4J:00000002 [ERR] Aqui... {
  "data": [
    {
      "Id": "5e66f1cbbff0b05fa9e95127",
      "Name": "Administrador",
      "Status": 1,
      "IdRol": 1,
      "IdUser": "idUser",
      "Note": "NOtaa",
      "IdCompany": "asdsad",
      "DateAdd": "2020-03-10T01:47:51.687Z"
    },
    {
      "Id": "5e66f1ff4e0f0b60f4b9a176",
      "Name": "Administrador",
      "Status": 1,
      "IdRol": 1,
      "IdUser": "idUser",
      "Note": "NOtaa",
      "IdCompany": "asdsad",
      "DateAdd": "2020-03-10T01:48:46.54Z"
    },
    {
      "Id": "5e66f23b5e3c6161cbfa4398",
      "Name": "Administrador",
      "Status": 1,
      "IdRol": 1,
      "IdUser": "idUser",
      "Note": "NOtaa",
      "IdCompany": "asdsad",
      "DateAdd": "2020-03-10T01:49:46.95Z"
    },
    {
      "Id": "5e66f2aa3857f7629d704f45",
      "Name": "Administrador",
      "Status": 1,
      "IdRol": 1,
      "IdUser": "idUser",
      "Note": "NOtaa",
      "IdCompany": "asdsad",
      "DateAdd": "2020-03-10T01:51:38.323Z"
    },
    {
      "Id": "5e66f2ea43b13863a5ad35c9",
      "Name": "Administrador",
      "Status": 1,
      "IdRol": 1,
      "IdUser": "idUser",
      "Note": "NOtaa",
      "IdCompany": "asdsad",
      "DateAdd": "2020-03-10T01:52:42.761Z"
    },
    {
      "Id": "5e66f35ded8af064bb59312f",
      "Name": "Administrador",
      "Status": 1,
      "IdRol": 1,
      "IdUser": "idUser",
      "Note": "NOtaa",
      "IdCompany": "asdsad",
      "DateAdd": "2020-03-10T01:54:27.397Z"
    },
    {
      "Id": "5e66f39fa45cfe6628da584e",
      "Name": "Administrador",
      "Status": 1,
      "IdRol": 1,
      "IdUser": "idUser",
      "Note": "NOtaa",
      "IdCompany": "asdsad",
      "DateAdd": "2020-03-10T01:55:42.823Z"
    },
    {
      "Id": "5e66f3c15ce18566e2eb2551",
      "Name": "Administrador",
      "Status": 1,
      "IdRol": 1,
      "IdUser": "idUser",
      "Note": "NOtaa",
      "IdCompany": "asdsad",
      "DateAdd": "2020-03-10T01:56:17.347Z"
    },
    {
      "Id": "5e66f3fdf8a4d16821d37352",
      "Name": "Administrador",
      "Status": 1,
      "IdRol": 1,
      "IdUser": "idUser",
      "Note": "NOtaa",
      "IdCompany": "asdsad",
      "DateAdd": "2020-03-10T01:57:16.962Z"
    },
    {
      "Id": "5e66f48586308a68ebd0c1ba",
      "Name": "Administrador",
      "Status": 1,
      "IdRol": 1,
      "IdUser": "idUser",
      "Note": "NOtaa",
      "IdCompany": "asdsad",
      "DateAdd": "2020-03-10T01:59:33.536Z"
    },
    {
      "Id": "5e66f48e86308a68ebd0c1bb",
      "Name": "Administrador",
      "Status": 1,
      "IdRol": 1,
      "IdUser": "idUser",
      "Note": "NOtaa",
      "IdCompany": "asdsad",
      "DateAdd": "2020-03-10T01:59:42.078Z"
    },
    {
      "Id": "5e66f4d286308a68ebd0c1bc",
      "Name": "Administrador",
      "Status": 1,
      "IdRol": 1,
      "IdUser": "idUser",
      "Note": "NOtaa",
      "IdCompany": "asdsad",
      "DateAdd": "2020-03-10T02:00:50.299Z"
    },
    {
      "Id": "5e66f4d786308a68ebd0c1bd",
      "Name": "Administrador",
      "Status": 1,
      "IdRol": 1,
      "IdUser": "idUser",
      "Note": "NOtaa",
      "IdCompany": "asdsad",
      "DateAdd": "2020-03-10T02:00:55.826Z"
    },
    {
      "Id": "5e66f4da86308a68ebd0c1be",
      "Name": "Administrador",
      "Status": 1,
      "IdRol": 1,
      "IdUser": "idUser",
      "Note": "NOtaa",
      "IdCompany": "asdsad",
      "DateAdd": "2020-03-10T02:00:58.067Z"
    },
    {
      "Id": "5e66f4f786308a68ebd0c1bf",
      "Name": "Administrador",
      "Status": 1,
      "IdRol": 1,
      "IdUser": "idUser",
      "Note": "NOtaa",
      "IdCompany": "asdsad",
      "DateAdd": "2020-03-10T02:01:27.864Z"
    }
  ]
} (0fa061f6)
2020-03-09T22:11:33.9739939-04:00  [INF] Application is shutting down... (90f52c38)
2020-03-09T22:11:45.2158978-04:00  [INF] Now listening on: "http://localhost:5000" (d826f4b8)
2020-03-09T22:11:45.2391709-04:00  [INF] Now listening on: "http://10.10.0.121:5000" (d826f4b8)
2020-03-09T22:11:45.2399149-04:00  [INF] Application started. Press Ctrl+C to shut down. (dcaefe54)
2020-03-09T22:11:45.2400368-04:00  [INF] Hosting environment: "Development" (c3307c92)
2020-03-09T22:11:45.2401661-04:00  [INF] Content root path: "/media/support/ExternalDiskTour/Templates/dotnet/webapiMongoDb" (b5d60022)
2020-03-09T22:12:38.7899775-04:00  [INF] Application is shutting down... (90f52c38)
2020-03-09T22:12:48.2393561-04:00  [INF] Now listening on: "http://localhost:5000" (d826f4b8)
2020-03-09T22:12:48.2704628-04:00  [INF] Now listening on: "http://10.10.0.121:5000" (d826f4b8)
2020-03-09T22:12:48.2711861-04:00  [INF] Application started. Press Ctrl+C to shut down. (dcaefe54)
2020-03-09T22:12:48.2713129-04:00  [INF] Hosting environment: "Development" (c3307c92)
2020-03-09T22:12:48.2714445-04:00  [INF] Content root path: "/media/support/ExternalDiskTour/Templates/dotnet/webapiMongoDb" (b5d60022)
2020-03-09T22:20:01.1155537-04:00  [INF] Application is shutting down... (90f52c38)
2020-03-09T22:20:12.9366960-04:00  [INF] Now listening on: "http://localhost:5000" (d826f4b8)
2020-03-09T22:20:12.9611775-04:00  [INF] Now listening on: "http://10.10.0.121:5000" (d826f4b8)
2020-03-09T22:20:12.9618253-04:00  [INF] Application started. Press Ctrl+C to shut down. (dcaefe54)
2020-03-09T22:20:12.9619465-04:00  [INF] Hosting environment: "Development" (c3307c92)
2020-03-09T22:20:12.9620840-04:00  [INF] Content root path: "/media/support/ExternalDiskTour/Templates/dotnet/webapiMongoDb" (b5d60022)
2020-03-09T22:20:16.7870874-04:00 0HLU4J690FOSK:00000001 [FTL] 2/6/2020 8:36:02 PM (43786572)
2020-03-09T22:32:26.1241272-04:00 0HLU4J690FP0O:00000001 [FTL] 2/6/2020 8:36:02 PM (43786572)
2020-03-09T22:32:29.1176907-04:00 0HLU4J690FP0O:00000002 [FTL] 2/6/2020 8:36:02 PM (43786572)
2020-03-09T22:34:17.8208168-04:00  [INF] Application is shutting down... (90f52c38)
2020-03-09T22:34:32.0549397-04:00  [INF] Now listening on: "http://localhost:5000" (d826f4b8)
2020-03-09T22:34:32.0859483-04:00  [INF] Now listening on: "http://10.10.0.121:5000" (d826f4b8)
2020-03-09T22:34:32.0867352-04:00  [INF] Application started. Press Ctrl+C to shut down. (dcaefe54)
2020-03-09T22:34:32.0868868-04:00  [INF] Hosting environment: "Development" (c3307c92)
2020-03-09T22:34:32.0870165-04:00  [INF] Content root path: "/media/support/ExternalDiskTour/Templates/dotnet/webapiMongoDb" (b5d60022)
2020-03-09T22:44:11.8833349-04:00  [INF] Application is shutting down... (90f52c38)
2020-03-09T22:44:23.2362616-04:00  [INF] Now listening on: "http://localhost:5000" (d826f4b8)
2020-03-09T22:44:23.2598209-04:00  [INF] Now listening on: "http://10.10.0.121:5000" (d826f4b8)
2020-03-09T22:44:23.2605123-04:00  [INF] Application started. Press Ctrl+C to shut down. (dcaefe54)
2020-03-09T22:44:23.2606583-04:00  [INF] Hosting environment: "Development" (c3307c92)
2020-03-09T22:44:23.2607814-04:00  [INF] Content root path: "/media/support/ExternalDiskTour/Templates/dotnet/webapiMongoDb" (b5d60022)
2020-03-09T22:44:42.3315266-04:00  [INF] Application is shutting down... (90f52c38)
2020-03-09T22:44:55.4375936-04:00  [INF] Now listening on: "http://localhost:5000" (d826f4b8)
2020-03-09T22:44:55.4698033-04:00  [INF] Now listening on: "http://10.10.0.121:5000" (d826f4b8)
2020-03-09T22:44:55.4709567-04:00  [INF] Application started. Press Ctrl+C to shut down. (dcaefe54)
2020-03-09T22:44:55.4714862-04:00  [INF] Hosting environment: "Development" (c3307c92)
2020-03-09T22:44:55.4719708-04:00  [INF] Content root path: "/media/support/ExternalDiskTour/Templates/dotnet/webapiMongoDb" (b5d60022)
2020-03-09T22:45:55.5050837-04:00  [INF] Application is shutting down... (90f52c38)
2020-03-09T22:46:40.9189908-04:00  [INF] Now listening on: "http://localhost:5000" (d826f4b8)
2020-03-09T22:46:40.9422004-04:00  [INF] Now listening on: "http://10.10.0.121:5000" (d826f4b8)
2020-03-09T22:46:40.9429522-04:00  [INF] Application started. Press Ctrl+C to shut down. (dcaefe54)
2020-03-09T22:46:40.9430750-04:00  [INF] Hosting environment: "Development" (c3307c92)
2020-03-09T22:46:40.9432338-04:00  [INF] Content root path: "/media/support/ExternalDiskTour/Templates/dotnet/webapiMongoDb" (b5d60022)
2020-03-09T22:48:11.7671374-04:00  [INF] Application is shutting down... (90f52c38)
2020-03-09T22:48:23.0133697-04:00  [INF] Now listening on: "http://localhost:5000" (d826f4b8)
2020-03-09T22:48:23.0375543-04:00  [INF] Now listening on: "http://10.10.0.121:5000" (d826f4b8)
2020-03-09T22:48:23.0382783-04:00  [INF] Application started. Press Ctrl+C to shut down. (dcaefe54)
2020-03-09T22:48:23.0384480-04:00  [INF] Hosting environment: "Development" (c3307c92)
2020-03-09T22:48:23.0386127-04:00  [INF] Content root path: "/media/support/ExternalDiskTour/Templates/dotnet/webapiMongoDb" (b5d60022)
2020-03-09T22:48:41.6558702-04:00  [INF] Application is shutting down... (90f52c38)
2020-03-09T22:48:59.3933894-04:00  [INF] Now listening on: "http://localhost:5000" (d826f4b8)
2020-03-09T22:48:59.4254892-04:00  [INF] Now listening on: "http://10.10.0.121:5000" (d826f4b8)
2020-03-09T22:48:59.4262185-04:00  [INF] Application started. Press Ctrl+C to shut down. (dcaefe54)
2020-03-09T22:48:59.4263401-04:00  [INF] Hosting environment: "Development" (c3307c92)
2020-03-09T22:48:59.4265203-04:00  [INF] Content root path: "/media/support/ExternalDiskTour/Templates/dotnet/webapiMongoDb" (b5d60022)
2020-03-09T22:49:18.2294480-04:00 0HLU4JMB4BR3B:00000001 [FTL] 2/6/2020 8:36:02 PM (43786572)
2020-03-09T22:49:50.6426746-04:00  [INF] Application is shutting down... (90f52c38)
2020-03-09T22:50:00.6023288-04:00  [INF] Now listening on: "http://localhost:5000" (d826f4b8)
2020-03-09T22:50:00.6311007-04:00  [INF] Now listening on: "http://10.10.0.121:5000" (d826f4b8)
2020-03-09T22:50:00.6317535-04:00  [INF] Application started. Press Ctrl+C to shut down. (dcaefe54)
2020-03-09T22:50:00.6318498-04:00  [INF] Hosting environment: "Development" (c3307c92)
2020-03-09T22:50:00.6319475-04:00  [INF] Content root path: "/media/support/ExternalDiskTour/Templates/dotnet/webapiMongoDb" (b5d60022)
2020-03-09T22:53:44.1463969-04:00  [INF] Application is shutting down... (90f52c38)
2020-03-09T22:54:03.0719249-04:00  [INF] Now listening on: "http://localhost:5000" (d826f4b8)
2020-03-09T22:54:03.0959660-04:00  [INF] Now listening on: "http://10.10.0.121:5000" (d826f4b8)
2020-03-09T22:54:03.0966268-04:00  [INF] Application started. Press Ctrl+C to shut down. (dcaefe54)
2020-03-09T22:54:03.0967453-04:00  [INF] Hosting environment: "Development" (c3307c92)
2020-03-09T22:54:03.0968837-04:00  [INF] Content root path: "/media/support/ExternalDiskTour/Templates/dotnet/webapiMongoDb" (b5d60022)
2020-03-09T23:00:34.7754827-04:00  [INF] Application is shutting down... (90f52c38)
